{
	"pages": [{
		"path": "pages/login/login",
		"style": {
			"navigationBarBackgroundColor": "#F8B009",
			"navigationBarTextStyle": "white",
			"navigationBarTitleText": "登录"
		}
	}, {
		"path": "pages/register/register",
		"style": {
			"navigationBarBackgroundColor": "#F8B009",
			"navigationBarTextStyle": "white",
			"navigationBarTitleText": "注册"
		}
	}, {
		"path": "pages/forget/forget",
		"style": {
			"navigationBarBackgroundColor": "#F8B009",
			"navigationBarTextStyle": "white",
			"navigationBarTitleText": "忘记密码"
		}
	}, {
		"path": "pages/center/center",
		"style": {
			"navigationBarBackgroundColor": "#F8B009",
			"navigationBarTextStyle": "white",
			"navigationBarTitleText": "我的"
		}
	}, {
		"path": "pages/user-info/user-info",
		"style": {
			"navigationBarBackgroundColor": "#F8B009",
			"navigationBarTextStyle": "white",
			"navigationBarTitleText": "用户信息"
		}
	}
	, {
		"path": "pages/chat/chat",
		"style": {
			"navigationBarTitleText": "联系客服"
		}
	}
			,{
		"path": "pages/yonghu/list",
		"style": {
			"navigationBarBackgroundColor": "#F8B009",
			"navigationBarTextStyle": "white"
		}
	},{
		"path": "pages/yonghu/add-or-update",
		"style": {
			"navigationBarBackgroundColor": "#F8B009",
			"navigationBarTextStyle": "white"
		}
	},{
		"path": "pages/yonghu/detail",
		"style": {
			"navigationBarBackgroundColor": "#F8B009",
			"navigationBarTextStyle": "white"
		}
	}
				,{
		"path": "pages/xinwenfenlei/list",
		"style": {
			"navigationBarBackgroundColor": "#F8B009",
			"navigationBarTextStyle": "white"
		}
	},{
		"path": "pages/xinwenfenlei/add-or-update",
		"style": {
			"navigationBarBackgroundColor": "#F8B009",
			"navigationBarTextStyle": "white"
		}
	},{
		"path": "pages/xinwenfenlei/detail",
		"style": {
			"navigationBarBackgroundColor": "#F8B009",
			"navigationBarTextStyle": "white"
		}
	}
				,{
		"path": "pages/xinwenxinxi/list",
		"style": {
			"navigationBarBackgroundColor": "#F8B009",
			"navigationBarTextStyle": "white"
		}
	},{
		"path": "pages/xinwenxinxi/add-or-update",
		"style": {
			"navigationBarBackgroundColor": "#F8B009",
			"navigationBarTextStyle": "white"
		}
	},{
		"path": "pages/xinwenxinxi/detail",
		"style": {
			"navigationBarBackgroundColor": "#F8B009",
			"navigationBarTextStyle": "white"
		}
	}
				,{
		"path": "pages/shipinfenlei/list",
		"style": {
			"navigationBarBackgroundColor": "#F8B009",
			"navigationBarTextStyle": "white"
		}
	},{
		"path": "pages/shipinfenlei/add-or-update",
		"style": {
			"navigationBarBackgroundColor": "#F8B009",
			"navigationBarTextStyle": "white"
		}
	},{
		"path": "pages/shipinfenlei/detail",
		"style": {
			"navigationBarBackgroundColor": "#F8B009",
			"navigationBarTextStyle": "white"
		}
	}
				,{
		"path": "pages/xinwenshipin/list",
		"style": {
			"navigationBarBackgroundColor": "#F8B009",
			"navigationBarTextStyle": "white"
		}
	},{
		"path": "pages/xinwenshipin/add-or-update",
		"style": {
			"navigationBarBackgroundColor": "#F8B009",
			"navigationBarTextStyle": "white"
		}
	},{
		"path": "pages/xinwenshipin/detail",
		"style": {
			"navigationBarBackgroundColor": "#F8B009",
			"navigationBarTextStyle": "white"
		}
	}
							,{
		"path": "pages/storeup/list",
		"style": {
			"navigationBarBackgroundColor": "#F8B009",
			"navigationBarTextStyle": "white"
		}
	},{
		"path": "pages/storeup/add-or-update",
		"style": {
			"navigationBarBackgroundColor": "#F8B009",
			"navigationBarTextStyle": "white"
		}
	},{
		"path": "pages/storeup/detail",
		"style": {
			"navigationBarBackgroundColor": "#F8B009",
			"navigationBarTextStyle": "white"
		}
	}
				,{
		"path": "pages/discussxinwenxinxi/list",
		"style": {
			"navigationBarBackgroundColor": "#F8B009",
			"navigationBarTextStyle": "white"
		}
	},{
		"path": "pages/discussxinwenxinxi/add-or-update",
		"style": {
			"navigationBarBackgroundColor": "#F8B009",
			"navigationBarTextStyle": "white"
		}
	},{
		"path": "pages/discussxinwenxinxi/detail",
		"style": {
			"navigationBarBackgroundColor": "#F8B009",
			"navigationBarTextStyle": "white"
		}
	}
				,{
		"path": "pages/discussxinwenshipin/list",
		"style": {
			"navigationBarBackgroundColor": "#F8B009",
			"navigationBarTextStyle": "white"
		}
	},{
		"path": "pages/discussxinwenshipin/add-or-update",
		"style": {
			"navigationBarBackgroundColor": "#F8B009",
			"navigationBarTextStyle": "white"
		}
	},{
		"path": "pages/discussxinwenshipin/detail",
		"style": {
			"navigationBarBackgroundColor": "#F8B009",
			"navigationBarTextStyle": "white"
		}
	}
					, {
		"path": "pages/index/index",
		"style": {
			"navigationBarBackgroundColor": "#F8B009",
			"navigationBarTextStyle": "white",
			"navigationBarTitleText": "首页"
		}
	}
	],
	"globalStyle": {
		"navigationBarTextStyle": "black",
		"navigationBarTitleText": "新闻资讯系统小程序",
		"navigationBarBackgroundColor": "#F8F8F8",
		"backgroundColor": "#F8F8F8"
	},
	"tabBar": {
		"color": "#339999",
		"selectedColor": "#000000",
		"borderStyle": "black",
		"backgroundColor": "#FFFFFF",
		"list": [{
				"pagePath": "pages/index/index",
				"iconPath": "static/tabs/index.png",
				"selectedIconPath": "static/tabs/index1.png",
				"text": "首页"
			}
			
												,{
				"pagePath": "pages/xinwenxinxi/list",
				"iconPath": "/static/tabs/icon1.png",
				"selectedIconPath": "/static/tabs/icon1_act.png",
				"text": "新闻信息"
			}
												,{
				"pagePath": "pages/xinwenshipin/list",
				"iconPath": "/static/tabs/icon2.png",
				"selectedIconPath": "/static/tabs/icon2_act.png",
				"text": "新闻视频"
			}
						
						
			,{
				"pagePath": "pages/center/center",
				"iconPath": "static/tabs/mine.png",
				"selectedIconPath": "static/tabs/mine1.png",
				"text": "我的"
			}
		]
	}
}
